{
    "metadata":{
        "generator":"io_three",
        "uvs":1,
        "normals":1,
        "version":3,
        "vertices":4,
        "type":"Geometry",
        "faces":1,
        "colors":0,
        "materials":1
    },
    "uvs":[[0.00010004,9.998e-05,0.9999,9.998e-05,0.9999,0.9999,9.998e-05,0.9999]],
    "colors":[],
    "faces":[43,0,1,3,2,0,0,1,2,3,0,0,0,0],
    "vertices":[-1,4.37114e-08,1,1,4.37114e-08,1,-1,-4.37114e-08,-1,1,-4.37114e-08,-1],
    "normals":[0,1,-4.37114e-08],
    "materials":[{
        "depthWrite":true,
        "colorDiffuse":[0.64,0.64,0.64],
        "doubleSided":false,
        "mapDiffuseAnisotropy":1,
        "vertexColors":false,
        "shading":"phong",
        "colorEmissive":[0,0,0],
        "mapDiffuse":"nave2.png",
        "mapDiffuseRepeat":[1,1],
        "visible":true,
        "DbgName":"Material.003",
        "wireframe":false,
        "DbgIndex":0,
        "colorSpecular":[0.5,0.5,0.5],
        "DbgColor":15658734,
        "depthTest":true,
        "specularCoef":50,
        "mapDiffuseWrap":["repeat","repeat"],
        "opacity":1,
        "transparent":true,
        "blending":1
    }]
}